[gd_scene load_steps=4 format=2]

[ext_resource path="res://Scripts/Ball.gd" type="Script" id=1]
[ext_resource path="res://Sprites/Ball.png" type="Texture" id=2]

[sub_resource type="CircleShape2D" id=1]
radius = 12.0

[node name="Ball" type="KinematicBody2D"]
collision_layer = 4
collision_mask = 3
script = ExtResource( 1 )
baseSpeed = 250
speedIncreaseOnBounce = 5.0

[node name="Sprite" type="Sprite" parent="."]
scale = Vector2( 0.8, 0.8 )
texture = ExtResource( 2 )

[node name="CollisionShape2D" type="CollisionShape2D" parent="."]
shape = SubResource( 1 )
