; Engine configuration file.
; It's best edited using the editor UI and not directly,
; since the parameters that go here are not all obvious.
;
; Format:
;   [section] ; section goes between []
;   param=value ; assign values to parameters

config_version=4

_global_script_classes=[ {
"base": "KinematicBody2D",
"class": "Paddle",
"language": "GDScript",
"path": "res://Scripts/Paddle.gd"
} ]
_global_script_class_icons={
"Paddle": ""
}

[application]

config/name="Godot Pong"
run/main_scene="res://Scenes/Title.tscn"
config/icon="res://icon.png"

[display]

window/size/resizable=false
window/energy_saving/keep_screen_on=false

[layer_names]

2d_physics/layer_1="Paddle"
2d_physics/layer_2="Wall"
2d_physics/layer_3="Ball"
2d_physics/layer_4="Goal"

[rendering]

quality/2d/use_pixel_snap=true
environment/default_environment="res://default_env.tres"
